000000 FF FF FF FF FF FF FF FF FF FF FF FF FF FF FF FF ................
000010 FF FF FF FF FF FF FF FF FF FF FF FF FF FF FF FF ................
000020 FF FF FF FF FF FF FF FF FF FF FF FF FF FF FF FF ................
000030 FF FF FF FF FF FF FF FF FF FF FF FF FF FF FF FF ................
000040 FF FF FF FF FF FF FF FF FF FF FF FF FF FF FF FF ................
000050 FF FF FF FF FF FF FF FF FF FF FF FF FF FF FF FF ................
000060 FF FF FF FF FF FF FF FF FF FF FF FF FF FF FF FF ................
000070 FF FF FF FF FF FF FF FF FF FF FF FF FF FF FF FF ................
000080 FF FF FF FF FF FF FF FF FF FF FF FF FF FF FF FF ................
000090 FF FF FF FF FF FF FF FF FF FF FF FF FF FF FF FF ................
0000A0 FF FF FF FF FF FF FF FF FF FF FF FF FF FF FF FF ................
0000B0 FF FF FF FF FF FF FF FF FF FF FF FF FF FF FF FF ................
0000C0 FF FF FF FF FF FF FF FF FF FF FF FF FF FF FF FF ................
0000D0 FF FF FF FF FF FF FF FF FF FF FF FF FF FF FF FF ................
0000E0 FF FF FF FF FF FF FF FF FF FF FF FF FF FF FF FF ................
0000F0 FF FF FF FF FF FF FF FF FF FF FF FF FF FF FF FF ................
000100 FF FF FF FF FF FF FF FF FF FF FF FF FF FF FF FF ................
000110 FF FF FF FF FF FF FF FF FF FF FF FF FF FF FF FF ................
000120 FF FF FF FF FF FF FF FF FF FF FF FF FF FF FF FF ................
000130 FF FF FF FF FF FF FF FF FF FF FF FF FF FF FF FF ................
000140 FF FF FF FF FF FF FF FF FF FF FF FF FF FF FF FF ................
000150 FF FF FF FF FF FF FF FF FF FF FF FF FF FF FF FF ................
000160 FF FF FF FF FF FF FF FF FF FF FF FF FF FF FF FF ................
000170 FF FF FF FF FF FF FF FF FF FF FF FF FF FF FF FF ................
000180 FF FF FF FF FF FF FF FF FF FF FF FF FF FF FF FF ................
000190 FF FF FF FF FF FF FF FF FF FF FF FF FF FF FF FF ................
0001A0 FF FF FF FF FF FF FF FF FF FF FF FF FF FF FF FF ................
0001B0 FF FF FF FF FF FF FF FF FF FF FF FF FF FF FF FF ................
0001C0 FF FF FF FF FF FF FF FF FF FF FF FF FF FF FF FF ................
0001D0 FF FF FF FF FF FF FF FF FF FF FF FF FF FF FF FF ................
0001E0 FF FF FF FF FF FF FF FF FF FF FF FF FF FF FF FF ................
0001F0 FF FF FF FF FF FF FF FF FF FF FF FF FF FF FF FF ................
