000000 54 68 65 20 44 53 32 34 33 33 20 34 4B 62 20 31 The DS2433 4Kb 1
000010 2D 57 69 72 65 20 28 52 29 20 45 45 50 52 4F 4D -Wire (R) EEPROM
000020 20 69 64 65 6E 74 69 66 69 65 73 20 61 6E 64 20  identifies and 
000030 73 74 6F 72 65 73 20 72 65 6C 65 76 61 6E 74 20 stores relevant 
000040 69 6E 66 6F 72 6D 61 74 69 6F 6E 20 61 62 6F 75 information abou
000050 74 20 74 68 65 20 70 72 6F 64 75 63 74 20 74 6F t the product to
000060 20 77 68 69 63 68 20 69 74 20 69 73 20 61 73 73  which it is ass
000070 6F 63 69 61 74 65 64 2E 20 54 68 69 73 20 6C 6F ociated. This lo
000080 74 20 6F 72 20 70 72 6F 64 75 63 74 20 73 70 65 t or product spe
000090 63 69 66 69 63 20 69 6E 66 6F 72 6D 61 74 69 6F cific informatio
0000A0 6E 20 63 61 6E 20 62 65 20 61 63 63 65 73 73 65 n can be accesse
0000B0 64 20 77 69 74 68 20 6D 69 6E 69 6D 61 6C 20 69 d with minimal i
0000C0 6E 74 65 72 66 61 63 65 2C 20 66 6F 72 20 65 78 nterface, for ex
0000D0 61 6D 70 6C 65 20 61 20 73 69 6E 67 6C 65 20 70 ample a single p
0000E0 6F 72 74 20 70 69 6E 20 6F 66 20 61 20 6D 69 63 ort pin of a mic
0000F0 72 6F 63 6F 6E 74 72 6F 6C 6C 65 72 2E 20 54 68 rocontroller. Th
000100 65 20 44 53 32 34 33 33 20 63 6F 6E 73 69 73 74 e DS2433 consist
000110 73 20 6F 66 20 61 20 66 61 63 74 6F 72 79 2D 6C s of a factory-l
000120 61 73 65 72 65 64 20 72 65 67 69 73 74 72 61 74 asered registrat
000130 69 6F 6E 20 6E 75 6D 62 65 72 20 74 68 61 74 20 ion number that 
000140 69 6E 63 6C 75 64 65 73 20 61 20 75 6E 69 71 75 includes a uniqu
000150 65 20 34 38 2D 62 69 74 20 73 65 72 69 61 6C 20 e 48-bit serial 
000160 6E 75 6D 62 65 72 2C 20 61 6E 20 38 2D 62 69 74 number, an 8-bit
000170 20 43 52 43 2C 20 61 6E 64 20 61 6E 20 38 2D 62  CRC, and an 8-b
000180 69 74 20 46 61 6D 69 6C 79 20 43 6F 64 65 20 28 it Family Code (
000190 32 33 68 29 20 70 6C 75 73 20 34 30 39 36 20 62 23h) plus 4096 b
0001A0 69 74 73 20 6F 66 20 75 73 65 72 2D 70 72 6F 67 its of user-prog
0001B0 72 61 6D 6D 61 62 6C 65 20 45 45 50 52 4F 4D 2E rammable EEPROM.
0001C0 20 54 68 65 20 70 6F 77 65 72 20 74 6F 20 72 65  The power to re
0001D0 61 64 20 61 6E 64 20 77 72 69 74 65 20 74 68 65 ad and write the
0001E0 20 44 53 32 34 33 33 20 69 73 20 64 65 72 69 76  DS2433 is deriv
0001F0 65 64 20 65 6E 74 69 72 65 6C 79 20 66 72 6F 7C ed entirely fro|

