000000: de bf 71 32 92 38 7a 6c d5 ab 19 2d 91 95 af 55   ..q2.8zl...-...U
000016: 0c c0 ac 19 3c 92 47 07 dd 7b 03 3b 49 7a 6e 04   ....<.G..{.;Izn.
000032: 7c e8 bc be 85 51 cd 39 8d 0e 85 65 33 be 18 32   |....Q.9...e3..2
000048: 8d 0e 85 65 33 be 18 32 1a e4 c0 c3 9d 9f 7e 2e   ...e3..2......~.
000064: 30 f9 00 00 00 00 fd 34 55 aa 55 77 c4 c1 6a be   0......4U.Uw..j.
000080: f5 1b 00 00 00 00 00 00 1a e4 c0 c3 9d 9f 7e 2e   ..............~.
000096: ce 52 4b b9 00 00 00 00 53 54 52 41 54 41 53 59   .RK.....STRATASY
000112: 53 8a fe 51 18 72 3a 75 6b c5 54 a2 05 09 2d ff   S..Q.r:uk.T...-.
000128: c4 1e 37 33 28 88 c7 3d 61 80 c8 b9 09 3f 5f cb   ..73(..=a....?_.
000144: 4f ae 42 4e b7 ab ed 06 3c 7b ae ac e0 da c5 84   O.BN....<{......
000160: 10 50 19 3e de b6 50 87 9a 11 d2 4a c0 db 52 fa   .P.>..P....J..R.
000176: cf d8 bb 7d cb ea c4 ce 0c 4a 30 ab 26 48 dd ca   ...}.....J0.&H..
000192: 14 7f eb f0 6f ec d8 a7 6a d4 c2 4c 92 55 be 21   ....o...j..L.U.!
000208: 09 dd 5d fa 0e e9 4a 1e b9 ab 09 b3 a5 16 fe f0   ..]...J.........
000224: 44 6c 86 e7 ed 0a fd 32 3a 98 03 7c 9e 47 be d5   Dl.....2:..|.G..
000240: 94 c5 f1 0f b6 77 6c d2 b3 43 da 60 0a 5f ea 1b   .....wl..C.`._..
000256: aa 48 d1 39 29 cf 58 4b 65 01 2b 55 7f 98 1f e4   .H.9).XKe.+U....
000272: d0 05 45 a4 0f 1d 57 88 be 03 0e 7a 03 89 b1 14   ..E...W....z....
000288: 82 d9 52 a1 8a 96 50 57 fa f4 5f ee 7a b4 88 9a   ..R...PW.._.z...
000304: ae 82 c5 85 8b 3f 79 82 8a d0 37 bf eb b3 7f 33   .....?y...7....3
000320: 56 f3 98 92 4c a8 d5 86 47 47 4c 09 59 2e 97 02   V...L...GGL.Y...
000336: fa 1a 3c f1 31 dd 31 f2 ab 74 0e b9 6d 49 32 b1   ..<.1.1..t..mI2.
000352: 8e 80 5f df a9 98 30 6b 07 4d 94 f0 3a fe 5c 88   .._...0k.M..:.\.
000368: c9 d2 fa b1 a9 00 be ec 76 25 e9 21 89 c1 c8 aa   ........v%.!....
000384: b5 da ed 76 97 aa aa 8c fe 07 19 d2 03 7f 69 b4   ...v..........i.
000400: 31 4c 4e 3b 95 7f 55 d7 4d 38 68 8e 6e 70 8b 38   1LN;..U.M8h.np.8
000416: 35 eb 97 12 96 4d 01 ce d1 f0 01 41 d0 29 7a f8   5....M.....A.)z.
000432: b0 95 4c f7 2b 20 89 a1 88 85 ce eb 7b 04 72 09   ..L.+ ......{.r.
000448: 77 50 a7 4b 9d e0 60 a8 af 10 02 14 96 87 83 0d   wP.K..`.........
000464: 8b 40 c2 ba e1 ab b6 3e 09 b5 94 8e 4b 52 4d 49   .@.....>....KRMI
000480: 36 2c 58 7f 81 4b 57 9e 0e 5c 1a 6a 94 82 a9 a6   6,X..KW..\.j....
000496: 5a 74 bd 17 3c bd 31 b7 72 51 a3 04 72 96 f8 b8   Zt..<.1.rQ..r...